<?xml version="1.0" encoding="UTF-8" standalone="no"?>
<!-- Created with Inkscape (http://www.inkscape.org/) -->

<svg
   xmlns:dc="http://purl.org/dc/elements/1.1/"
   xmlns:cc="http://creativecommons.org/ns#"
   xmlns:rdf="http://www.w3.org/1999/02/22-rdf-syntax-ns#"
   xmlns:svg="http://www.w3.org/2000/svg"
   xmlns="http://www.w3.org/2000/svg"
   xmlns:xlink="http://www.w3.org/1999/xlink"
   xmlns:sodipodi="http://sodipodi.sourceforge.net/DTD/sodipodi-0.dtd"
   xmlns:inkscape="http://www.inkscape.org/namespaces/inkscape"
   width="200.70039"
   height="200.77177"
   id="svg2"
   version="1.1"
   inkscape:version="0.48.3.1 r9886"
   sodipodi:docname="icon.svg">
  <defs
     id="defs4">
    <linearGradient
       inkscape:collect="always"
       id="linearGradient3919">
      <stop
         style="stop-color:#ff9e9e;stop-opacity:1;"
         offset="0"
         id="stop3921" />
      <stop
         style="stop-color:#ff9e9e;stop-opacity:0;"
         offset="1"
         id="stop3923" />
    </linearGradient>
    <linearGradient
       inkscape:collect="always"
       id="linearGradient3903">
      <stop
         style="stop-color:#ff9e9e;stop-opacity:1;"
         offset="0"
         id="stop3905" />
      <stop
         style="stop-color:#ff9e9e;stop-opacity:0;"
         offset="1"
         id="stop3907" />
    </linearGradient>
    <filter
       inkscape:collect="always"
       id="filter3899"
       x="-0.1150533"
       width="1.2301066"
       y="-0.21280304"
       height="1.4256061"
       color-interpolation-filters="sRGB">
      <feGaussianBlur
         inkscape:collect="always"
         stdDeviation="1.1475368"
         id="feGaussianBlur3901" />
    </filter>
    <filter
       id="filter4367"
       color-interpolation-filters="sRGB">
      <feGaussianBlur
         stdDeviation="1.569375"
         id="feGaussianBlur4369" />
    </filter>
    <filter
       id="filter4360"
       color-interpolation-filters="sRGB">
      <feGaussianBlur
         stdDeviation="4.0017124"
         id="feGaussianBlur4362" />
    </filter>
    <filter
       id="filter4482"
       color-interpolation-filters="sRGB">
      <feGaussianBlur
         stdDeviation="7.2205729"
         id="feGaussianBlur4484" />
    </filter>
    <filter
       id="filter9131-5"
       color-interpolation-filters="sRGB">
      <feGaussianBlur
         stdDeviation="1.2235176"
         id="feGaussianBlur9133-6" />
    </filter>
    <filter
       id="filter10472-8"
       color-interpolation-filters="sRGB">
      <feGaussianBlur
         stdDeviation="1.2065032"
         id="feGaussianBlur10474-6" />
    </filter>
    <filter
       id="filter10532-8"
       color-interpolation-filters="sRGB">
      <feGaussianBlur
         stdDeviation="1.7574496"
         id="feGaussianBlur10534-2" />
    </filter>
    <filter
       id="filter7883-7"
       color-interpolation-filters="sRGB">
      <feGaussianBlur
         stdDeviation="1.5013062"
         id="feGaussianBlur7885-2" />
    </filter>
    <filter
       id="filter7869-9"
       color-interpolation-filters="sRGB">
      <feGaussianBlur
         stdDeviation="1.0944136"
         id="feGaussianBlur7871-6" />
    </filter>
    <filter
       id="filter10565-0"
       color-interpolation-filters="sRGB">
      <feGaussianBlur
         stdDeviation="5.2435245"
         id="feGaussianBlur10567-7" />
    </filter>
    <filter
       id="filter9355-9"
       color-interpolation-filters="sRGB">
      <feGaussianBlur
         id="feGaussianBlur9357-4"
         stdDeviation="2.0123267" />
    </filter>
    <filter
       id="filter10594"
       color-interpolation-filters="sRGB">
      <feGaussianBlur
         id="feGaussianBlur10596"
         stdDeviation="4.8486286" />
    </filter>
    <filter
       id="filter10565"
       color-interpolation-filters="sRGB">
      <feGaussianBlur
         id="feGaussianBlur10567"
         stdDeviation="5.2435245" />
    </filter>
    <filter
       id="filter10541"
       color-interpolation-filters="sRGB">
      <feGaussianBlur
         id="feGaussianBlur10543"
         stdDeviation="1.3301088" />
    </filter>
    <filter
       id="filter10532"
       color-interpolation-filters="sRGB">
      <feGaussianBlur
         id="feGaussianBlur10534"
         stdDeviation="1.7574496" />
    </filter>
    <filter
       id="filter10511"
       color-interpolation-filters="sRGB">
      <feGaussianBlur
         id="feGaussianBlur10513"
         stdDeviation="3.0802934" />
    </filter>
    <filter
       id="filter10502"
       color-interpolation-filters="sRGB">
      <feGaussianBlur
         id="feGaussianBlur10504"
         stdDeviation="1.9450166" />
    </filter>
    <filter
       id="filter10472"
       color-interpolation-filters="sRGB">
      <feGaussianBlur
         id="feGaussianBlur10474"
         stdDeviation="1.2065032" />
    </filter>
    <filter
       id="filter10463"
       color-interpolation-filters="sRGB">
      <feGaussianBlur
         id="feGaussianBlur10465"
         stdDeviation="1.142735" />
    </filter>
    <filter
       id="filter10053"
       color-interpolation-filters="sRGB">
      <feGaussianBlur
         id="feGaussianBlur10055"
         stdDeviation="1.3920526" />
    </filter>
    <filter
       id="filter10024"
       color-interpolation-filters="sRGB">
      <feGaussianBlur
         id="feGaussianBlur10026"
         stdDeviation="3.2714724" />
    </filter>
    <filter
       id="filter9796"
       color-interpolation-filters="sRGB">
      <feGaussianBlur
         id="feGaussianBlur9798"
         stdDeviation="1.7339272" />
    </filter>
    <filter
       id="filter9355"
       color-interpolation-filters="sRGB">
      <feGaussianBlur
         id="feGaussianBlur9357"
         stdDeviation="2.0123267" />
    </filter>
    <filter
       id="filter9201"
       color-interpolation-filters="sRGB">
      <feGaussianBlur
         id="feGaussianBlur9203"
         stdDeviation="0.99406124" />
    </filter>
    <filter
       id="filter9188"
       color-interpolation-filters="sRGB">
      <feGaussianBlur
         id="feGaussianBlur9190"
         stdDeviation="1.1687683" />
    </filter>
    <filter
       id="filter9171"
       color-interpolation-filters="sRGB">
      <feGaussianBlur
         id="feGaussianBlur9173"
         stdDeviation="0.63471945" />
    </filter>
    <filter
       id="filter9131"
       color-interpolation-filters="sRGB">
      <feGaussianBlur
         id="feGaussianBlur9133"
         stdDeviation="1.2235176" />
    </filter>
    <filter
       id="filter9123"
       color-interpolation-filters="sRGB">
      <feGaussianBlur
         id="feGaussianBlur9125"
         stdDeviation="2.213047" />
    </filter>
    <filter
       id="filter9003-1"
       color-interpolation-filters="sRGB">
      <feGaussianBlur
         id="feGaussianBlur9005-9"
         stdDeviation="1.6019895" />
    </filter>
    <filter
       id="filter8863-8"
       color-interpolation-filters="sRGB">
      <feGaussianBlur
         id="feGaussianBlur8865-0"
         stdDeviation="1.048028" />
    </filter>
    <filter
       id="filter8532-2"
       color-interpolation-filters="sRGB">
      <feGaussianBlur
         id="feGaussianBlur8534-9"
         stdDeviation="1.6104583" />
    </filter>
    <filter
       id="filter8498"
       color-interpolation-filters="sRGB">
      <feGaussianBlur
         id="feGaussianBlur8500"
         stdDeviation="1.92948" />
    </filter>
    <filter
       id="filter4634-4"
       color-interpolation-filters="sRGB">
      <feGaussianBlur
         stdDeviation="1.4071425"
         id="feGaussianBlur4636-6" />
    </filter>
    <filter
       id="filter8207"
       color-interpolation-filters="sRGB">
      <feGaussianBlur
         id="feGaussianBlur8209"
         stdDeviation="2.7782755" />
    </filter>
    <filter
       id="filter7883"
       color-interpolation-filters="sRGB">
      <feGaussianBlur
         id="feGaussianBlur7885"
         stdDeviation="1.5013062" />
    </filter>
    <filter
       id="filter7869"
       color-interpolation-filters="sRGB">
      <feGaussianBlur
         id="feGaussianBlur7871"
         stdDeviation="1.0944136" />
    </filter>
    <filter
       id="filter7861"
       color-interpolation-filters="sRGB">
      <feGaussianBlur
         id="feGaussianBlur7863"
         stdDeviation="1.9050546" />
    </filter>
    <filter
       id="filter7857"
       color-interpolation-filters="sRGB">
      <feGaussianBlur
         id="feGaussianBlur7859"
         stdDeviation="3.1902038" />
    </filter>
    <filter
       id="filter7762"
       color-interpolation-filters="sRGB">
      <feGaussianBlur
         id="feGaussianBlur7764"
         stdDeviation="0.375" />
    </filter>
    <filter
       id="filter7578"
       color-interpolation-filters="sRGB">
      <feGaussianBlur
         id="feGaussianBlur7580"
         stdDeviation="2.6802169" />
    </filter>
    <filter
       id="filter7509"
       color-interpolation-filters="sRGB">
      <feGaussianBlur
         id="feGaussianBlur7511"
         stdDeviation="1.3346639" />
    </filter>
    <filter
       id="filter5576"
       color-interpolation-filters="sRGB">
      <feGaussianBlur
         stdDeviation="2.2762397"
         id="feGaussianBlur5578" />
    </filter>
    <filter
       id="filter5122"
       color-interpolation-filters="sRGB">
      <feGaussianBlur
         stdDeviation="2.9874995"
         id="feGaussianBlur5124" />
    </filter>
    <filter
       id="filter7787"
       color-interpolation-filters="sRGB">
      <feGaussianBlur
         id="feGaussianBlur7789"
         stdDeviation="1.6351843" />
    </filter>
    <inkscape:path-effect
       id="path-effect3882"
       effect="envelope"
       is_visible="true"
       yy="true"
       xx="true"
       bendpath1="M 0,0 1,0"
       bendpath2="M 0,0 1,0"
       bendpath3="M 0,0 1,0"
       bendpath4="M 0,0 1,0" />
    <inkscape:path-effect
       id="path-effect3886"
       effect="sketch"
       is_visible="true"
       nbiter_approxstrokes="5"
       strokelength="100"
       strokelength_rdm="0.3;1"
       strokeoverlap="0.3"
       strokeoverlap_rdm="0.3;1"
       ends_tolerance="0.1;1"
       parallel_offset="5;1"
       tremble_size="5;1"
       tremble_frequency="1"
       nbtangents="5"
       tgt_places_rdmness="1;1"
       tgtscale="10"
       tgtlength="100"
       tgtlength_rdm="0.3;1" />
    <inkscape:path-effect
       id="path-effect3888"
       effect="skeletal"
       is_visible="true"
       pattern="M 0,0 1,0"
       copytype="single_stretched"
       prop_scale="1"
       scale_y_rel="false"
       spacing="0"
       normal_offset="0"
       tang_offset="0"
       prop_units="false"
       vertical_pattern="false"
       fuse_tolerance="0" />
    <inkscape:path-effect
       id="path-effect3890"
       effect="knot"
       is_visible="true"
       interruption_width="3"
       prop_to_stroke_width="true"
       add_stroke_width="true"
       add_other_stroke_width="true"
       switcher_size="15"
       crossing_points_vector="" />
    <inkscape:path-effect
       id="path-effect3892"
       effect="rough_hatches"
       is_visible="true"
       direction="0,0 , 50,0"
       dist_rdm="75;1"
       growth="0"
       do_bend="true"
       bender="0,0 , -5,0"
       bottom_edge_variation="0;1"
       top_edge_variation="0;1"
       bottom_tgt_variation="0;1"
       top_tgt_variation="0;1"
       scale_bf="1"
       scale_bb="1"
       scale_tf="1"
       scale_tb="1"
       top_smth_variation="0;1"
       bottom_smth_variation="0;1"
       fat_output="true"
       stroke_width_top="1"
       stroke_width_bottom="1"
       front_thickness="1"
       back_thickness="0.25" />
    <inkscape:path-effect
       id="path-effect3894"
       effect="ruler"
       is_visible="true"
       unit="px"
       mark_distance="20"
       mark_length="14"
       minor_mark_length="7"
       major_mark_steps="5"
       shift="0"
       offset="0"
       mark_dir="left"
       border_marks="both" />
    <inkscape:path-effect
       id="path-effect3896"
       effect="spiro"
       is_visible="true" />
    <inkscape:path-effect
       id="path-effect3899"
       effect="spiro"
       is_visible="true" />
    <inkscape:path-effect
       id="path-effect3901"
       effect="vonkoch"
       is_visible="true"
       ref_path="M 0,0 10,0"
       generator="M 0,0 30,0 M 0,10 10,10 m 10,0 10,0"
       similar_only="false"
       nbgenerations="1"
       drawall="true"
       maxComplexity="1000" />
    <inkscape:path-effect
       id="path-effect3903"
       effect="vonkoch"
       is_visible="true"
       ref_path="M 0,0 10,0"
       generator="M 0,0 30,0 M 0,10 10,10 m 10,0 10,0"
       similar_only="false"
       nbgenerations="1"
       drawall="true"
       maxComplexity="1000" />
    <inkscape:path-effect
       id="path-effect3905"
       effect="curvestitching"
       is_visible="true"
       count="5"
       startpoint_edge_variation="0;1"
       startpoint_spacing_variation="0;1"
       endpoint_edge_variation="0;1"
       endpoint_spacing_variation="0;1"
       strokepath="M 0,0 1,0"
       prop_scale="1"
       scale_y_rel="false" />
    <inkscape:path-effect
       id="path-effect4039"
       effect="rough_hatches"
       is_visible="true"
       direction="0,0 , 50,0"
       dist_rdm="75;1"
       growth="0"
       do_bend="true"
       bender="0,0 , -5,0"
       bottom_edge_variation="0;1"
       top_edge_variation="0;1"
       bottom_tgt_variation="0;1"
       top_tgt_variation="0;1"
       scale_bf="1"
       scale_bb="1"
       scale_tf="1"
       scale_tb="1"
       top_smth_variation="0;1"
       bottom_smth_variation="0;1"
       fat_output="true"
       stroke_width_top="1"
       stroke_width_bottom="1"
       front_thickness="1"
       back_thickness="0.25" />
    <inkscape:path-effect
       id="path-effect4054"
       effect="spiro"
       is_visible="true" />
    <inkscape:path-effect
       id="path-effect4058"
       effect="skeletal"
       is_visible="true"
       pattern="M 0,0 1,0"
       copytype="single_stretched"
       prop_scale="1"
       scale_y_rel="false"
       spacing="0"
       normal_offset="0"
       tang_offset="0"
       prop_units="false"
       vertical_pattern="false"
       fuse_tolerance="0" />
    <inkscape:path-effect
       id="path-effect4077"
       effect="skeletal"
       is_visible="true"
       pattern="M 0,0 1,0"
       copytype="single_stretched"
       prop_scale="1"
       scale_y_rel="false"
       spacing="0"
       normal_offset="0"
       tang_offset="0"
       prop_units="false"
       vertical_pattern="false"
       fuse_tolerance="0" />
    <inkscape:path-effect
       id="path-effect4594"
       effect="bend_path"
       is_visible="true"
       bendpath="M 0,0 1,0"
       prop_scale="1"
       scale_y_rel="false"
       vertical="false" />
    <inkscape:path-effect
       id="path-effect4596"
       effect="skeletal"
       is_visible="true"
       pattern="M 0,0 1,0"
       copytype="single_stretched"
       prop_scale="1"
       scale_y_rel="false"
       spacing="0"
       normal_offset="0"
       tang_offset="0"
       prop_units="false"
       vertical_pattern="false"
       fuse_tolerance="0" />
    <inkscape:path-effect
       id="path-effect4615"
       effect="skeletal"
       is_visible="true"
       pattern="M 0,0 1,0"
       copytype="single_stretched"
       prop_scale="1"
       scale_y_rel="false"
       spacing="0"
       normal_offset="0"
       tang_offset="0"
       prop_units="false"
       vertical_pattern="false"
       fuse_tolerance="0" />
    <inkscape:path-effect
       id="path-effect4870"
       effect="spiro"
       is_visible="true" />
    <inkscape:path-effect
       id="path-effect4878"
       effect="spiro"
       is_visible="true" />
    <inkscape:path-effect
       id="path-effect4882"
       effect="spiro"
       is_visible="true" />
    <inkscape:path-effect
       id="path-effect4886"
       effect="spiro"
       is_visible="true" />
    <inkscape:path-effect
       id="path-effect4899"
       effect="spiro"
       is_visible="true" />
    <inkscape:path-effect
       id="path-effect4906"
       effect="spiro"
       is_visible="true" />
    <inkscape:path-effect
       id="path-effect4915"
       effect="spiro"
       is_visible="true" />
    <inkscape:path-effect
       id="path-effect4919"
       effect="spiro"
       is_visible="true" />
    <inkscape:path-effect
       id="path-effect4923"
       effect="spiro"
       is_visible="true" />
    <inkscape:path-effect
       id="path-effect4933"
       effect="spiro"
       is_visible="true" />
    <inkscape:path-effect
       id="path-effect4938"
       effect="spiro"
       is_visible="true" />
    <inkscape:path-effect
       id="path-effect3980"
       effect="spiro"
       is_visible="true" />
    <inkscape:path-effect
       id="path-effect4837"
       effect="spiro"
       is_visible="true" />
    <inkscape:path-effect
       id="path-effect4841"
       effect="spiro"
       is_visible="true" />
    <inkscape:path-effect
       id="path-effect4845"
       effect="spiro"
       is_visible="true" />
    <inkscape:path-effect
       id="path-effect4853"
       effect="spiro"
       is_visible="true" />
    <inkscape:path-effect
       id="path-effect4857"
       effect="spiro"
       is_visible="true" />
    <inkscape:path-effect
       id="path-effect4871"
       effect="spiro"
       is_visible="true" />
    <inkscape:path-effect
       id="path-effect4876"
       effect="spiro"
       is_visible="true" />
    <inkscape:path-effect
       id="path-effect4881"
       effect="spiro"
       is_visible="true" />
    <inkscape:path-effect
       id="path-effect4885"
       effect="spiro"
       is_visible="true" />
    <inkscape:path-effect
       id="path-effect4939"
       effect="spiro"
       is_visible="true" />
    <inkscape:path-effect
       id="path-effect5063"
       effect="spiro"
       is_visible="true" />
    <inkscape:path-effect
       id="path-effect11257"
       effect="spiro"
       is_visible="true" />
    <inkscape:path-effect
       id="path-effect4108"
       effect="spiro"
       is_visible="true" />
    <inkscape:path-effect
       id="path-effect4113"
       effect="spiro"
       is_visible="true" />
    <inkscape:path-effect
       id="path-effect4118"
       effect="spiro"
       is_visible="true" />
    <inkscape:path-effect
       id="path-effect4137"
       effect="spiro"
       is_visible="true" />
    <inkscape:path-effect
       id="path-effect4141"
       effect="spiro"
       is_visible="true" />
    <inkscape:path-effect
       id="path-effect4145"
       effect="spiro"
       is_visible="true" />
    <inkscape:path-effect
       id="path-effect4162"
       effect="spiro"
       is_visible="true" />
    <inkscape:path-effect
       id="path-effect5142"
       effect="spiro"
       is_visible="true" />
    <inkscape:path-effect
       id="path-effect5146"
       effect="spiro"
       is_visible="true" />
    <inkscape:path-effect
       id="path-effect5196"
       effect="spiro"
       is_visible="true" />
    <linearGradient
       id="linearGradient12171">
      <stop
         offset="0"
         style="stop-color:#f0f17d;stop-opacity:1"
         id="stop12173" />
      <stop
         offset="1"
         style="stop-color:#ff7070;stop-opacity:0"
         id="stop12175" />
    </linearGradient>
    <linearGradient
       id="linearGradient12185">
      <stop
         offset="0"
         style="stop-color:#a4d774;stop-opacity:1"
         id="stop12187" />
      <stop
         offset="0.57187235"
         style="stop-color:#b4f27b;stop-opacity:1"
         id="stop12193" />
      <stop
         offset="1"
         style="stop-color:#557834;stop-opacity:1"
         id="stop12189" />
    </linearGradient>
    <linearGradient
       inkscape:collect="always"
       xlink:href="#linearGradient3919"
       id="linearGradient6279"
       gradientUnits="userSpaceOnUse"
       x1="230.73557"
       y1="415.46762"
       x2="186.28914"
       y2="478.71075"
       gradientTransform="translate(-933.97183,612.72656)" />
    <linearGradient
       inkscape:collect="always"
       xlink:href="#linearGradient3903"
       id="linearGradient6281"
       gradientUnits="userSpaceOnUse"
       x1="206.52818"
       y1="423.71674"
       x2="232.26031"
       y2="459.46283"
       gradientTransform="translate(-933.97183,612.72656)" />
    <linearGradient
       inkscape:collect="always"
       xlink:href="#linearGradient3903"
       id="linearGradient6291"
       gradientUnits="userSpaceOnUse"
       x1="206.52818"
       y1="423.71674"
       x2="232.26031"
       y2="459.46283"
       gradientTransform="translate(-220.76404,667.27522)" />
    <linearGradient
       inkscape:collect="always"
       xlink:href="#linearGradient3919"
       id="linearGradient6293"
       gradientUnits="userSpaceOnUse"
       x1="230.73557"
       y1="415.46762"
       x2="186.28914"
       y2="478.71075"
       gradientTransform="translate(-220.76404,667.27522)" />
  </defs>
  <sodipodi:namedview
     id="base"
     pagecolor="#ffffff"
     bordercolor="#666666"
     borderopacity="1.0"
     inkscape:pageopacity="0.0"
     inkscape:pageshadow="2"
     inkscape:zoom="0.73428726"
     inkscape:cx="517.89342"
     inkscape:cy="-31.575213"
     inkscape:document-units="px"
     inkscape:current-layer="layer1"
     showgrid="false"
     inkscape:window-width="1358"
     inkscape:window-height="715"
     inkscape:window-x="0"
     inkscape:window-y="27"
     inkscape:window-maximized="1"
     showguides="true"
     inkscape:guide-bbox="true"
     fit-margin-top="0"
     fit-margin-left="0"
     fit-margin-right="0"
     fit-margin-bottom="0">
    <sodipodi:guide
       orientation="0,1"
       position="123.50209,524.25781"
       id="guide6295" />
    <sodipodi:guide
       orientation="0,1"
       position="242.91209,716.85462"
       id="guide6297" />
    <sodipodi:guide
       orientation="0,1"
       position="188.02201,196.8433"
       id="guide13065" />
    <sodipodi:guide
       orientation="0,1"
       position="29.129674,1.3575795"
       id="guide13067" />
  </sodipodi:namedview>
  <metadata
     id="metadata7">
    <rdf:RDF>
      <cc:Work
         rdf:about="">
        <dc:format>image/svg+xml</dc:format>
        <dc:type
           rdf:resource="http://purl.org/dc/dcmitype/StillImage" />
        <dc:title></dc:title>
      </cc:Work>
    </rdf:RDF>
  </metadata>
  <g
     inkscape:label="Layer 1"
     inkscape:groupmode="layer"
     id="layer1"
     transform="translate(-38.279197,-539.97822)">
    <path
       transform="matrix(0.94405594,0,0,0.94405594,-60.964684,232.83552)"
       d="m 313.57143,431.64789 c 0,56.41194 -45.73091,102.14286 -102.14286,102.14286 -56.41194,0 -102.14286,-45.73092 -102.14286,-102.14286 0,-56.41195 45.73092,-102.14286 102.14286,-102.14286 56.41195,0 102.14286,45.73091 102.14286,102.14286 z"
       sodipodi:ry="102.14286"
       sodipodi:rx="102.14286"
       sodipodi:cy="431.64789"
       sodipodi:cx="211.42857"
       id="path6301"
       style="fill:#4e9a06;fill-opacity:1;stroke:#101010;stroke-width:8.30882931;stroke-miterlimit:4;stroke-opacity:1;stroke-dasharray:none"
       sodipodi:type="arc"
       inkscape:export-filename="/home/sxe/code/shakerloops/alert.png"
       inkscape:export-xdpi="91"
       inkscape:export-ydpi="91" />
    <g
       id="g13057"
       transform="matrix(-1.1517946,-0.47241609,-0.47241609,1.1517946,562.84102,246.42131)"
       style="fill:#1dff00;fill-opacity:1"
       inkscape:export-filename="/home/sxe/code/shakerloops/alert.png"
       inkscape:export-xdpi="91"
       inkscape:export-ydpi="91">
      <path
         inkscape:connector-curvature="0"
         id="path13059"
         d="m 171.23163,383.14516 c -11.71573,0 -21.21875,9.14019 -21.21875,20.4375 0,2.92238 0.6362,5.70414 1.78125,8.21875 -0.18877,-1.1913 -0.28125,-2.41407 -0.28125,-3.65625 0,-13.24993 11.13433,-24 24.875,-24 0.52391,0 1.04662,0.0317 1.5625,0.0625 -2.11405,-0.68124 -4.36708,-1.0625 -6.71875,-1.0625 z"
         style="fill:#1dff00;fill-opacity:1;stroke:none" />
      <path
         sodipodi:nodetypes="cscssccc"
         inkscape:connector-curvature="0"
         style="fill:#1dff00;fill-opacity:1;stroke:none"
         d="m 173.05089,370.51825 c -18.73651,0 -33.93433,14.61756 -33.93433,32.68491 0,4.67365 1.01746,9.12242 2.84868,13.14394 -0.30188,-1.9052 -0.30103,-3.86631 -0.44979,-5.8473 -1.6321,-21.73415 15.42811,-39.17515 39.78164,-38.38228 0.83743,0.0273 1.67382,0.0507 2.49884,0.0999 -3.38091,-1.08948 -6.9841,-1.69922 -10.74504,-1.69922 z"
         id="path13061" />
      <path
         sodipodi:nodetypes="cscssccc"
         id="path13063"
         d="m 179.1378,355.9993 c -31.02128,0 -56.18368,24.20169 -56.18368,54.11506 0,7.73797 1.68457,15.10362 4.71645,21.76188 -0.49983,-3.15436 -0.5083,-6.40056 -0.7447,-9.68113 -2.89307,-40.14645 26.99378,-67.90204 65.86481,-63.54796 1.37861,0.15442 2.77128,0.0839 4.13724,0.1654 -5.59764,-1.80381 -11.56329,-2.81333 -17.79012,-2.81333 z"
         style="fill:#1dff00;fill-opacity:1;stroke:none"
         inkscape:connector-curvature="0" />
    </g>
    <g
       transform="matrix(0.85129622,-0.90835153,0.90835153,0.85129622,-400.24797,458.22111)"
       id="g13049"
       style="fill:#1dff00;fill-opacity:1"
       inkscape:export-filename="/home/sxe/code/shakerloops/alert.png"
       inkscape:export-xdpi="91"
       inkscape:export-ydpi="91">
      <path
         style="fill:#1dff00;fill-opacity:1;stroke:none"
         d="m 171.23163,383.14516 c -11.71573,0 -21.21875,9.14019 -21.21875,20.4375 0,2.92238 0.6362,5.70414 1.78125,8.21875 -0.18877,-1.1913 -0.28125,-2.41407 -0.28125,-3.65625 0,-13.24993 11.13433,-24 24.875,-24 0.52391,0 1.04662,0.0317 1.5625,0.0625 -2.11405,-0.68124 -4.36708,-1.0625 -6.71875,-1.0625 z"
         id="path13051"
         inkscape:connector-curvature="0" />
      <path
         id="path13053"
         d="m 173.05089,370.51825 c -18.73651,0 -33.93433,14.61756 -33.93433,32.68491 0,4.67365 1.01746,9.12242 2.84868,13.14394 -0.30188,-1.9052 -0.30103,-3.86631 -0.44979,-5.8473 -1.6321,-21.73415 15.42811,-39.17515 39.78164,-38.38228 0.83743,0.0273 1.67382,0.0507 2.49884,0.0999 -3.38091,-1.08948 -6.9841,-1.69922 -10.74504,-1.69922 z"
         style="fill:#1dff00;fill-opacity:1;stroke:none"
         inkscape:connector-curvature="0"
         sodipodi:nodetypes="cscssccc" />
      <path
         inkscape:connector-curvature="0"
         style="fill:#1dff00;fill-opacity:1;stroke:none"
         d="m 179.1378,355.9993 c -31.02128,0 -56.18368,24.20169 -56.18368,54.11506 0,7.73797 1.68457,15.10362 4.71645,21.76188 -0.49983,-3.15436 -0.5083,-6.40056 -0.7447,-9.68113 -2.89307,-40.14645 26.99378,-67.90204 65.86481,-63.54796 1.37861,0.15442 2.77128,0.0839 4.13724,0.1654 -5.59764,-1.80381 -11.56329,-2.81333 -17.79012,-2.81333 z"
         id="path13055"
         sodipodi:nodetypes="cscssccc" />
    </g>
    <path
       style="fill:#8c8c8c;fill-opacity:1;fill-rule:nonzero;stroke:#1a1a1a;stroke-width:8;stroke-linecap:square;stroke-linejoin:miter;stroke-miterlimit:4;stroke-opacity:1;stroke-dasharray:none"
       d="m 48.977666,662.94478 c 0.2067,0.82287 0.42855,1.62318 0.65625,2.4375 6.94325,5.56682 12.39981,12.94407 8.6875,21.125 0.93663,1.6692 1.93755,3.30034 2.96875,4.90625 0.34641,-0.55059 0.70869,-1.08901 1.125,-1.625 8.3482,-10.7481 -2.40127,-20.42902 -13.4375,-26.84375 z"
       id="path3768"
       inkscape:connector-curvature="0"
       inkscape:export-filename="/home/sxe/code/shakerloops/alert.png"
       inkscape:export-xdpi="91"
       inkscape:export-ydpi="91" />
    <path
       style="fill:#8c8c8c;fill-opacity:1;fill-rule:nonzero;stroke:#1a1a1a;stroke-width:8;stroke-linecap:square;stroke-linejoin:miter;stroke-miterlimit:4;stroke-opacity:1;stroke-dasharray:none"
       d="m 159.81322,572.25151 -25.125,38.3125 -50.249994,-35.9375 c -18.86002,11.86562 -28.47888,28.89054 -33.34375,48.53125 l 58.468744,8.75 c -20.988684,26.13002 -29.447944,53.88328 -33.781244,81.5625 16.87956,14.52132 38.830784,23.28125 62.843744,23.28125 5.02605,0 9.96264,-0.38377 14.78125,-1.125 l 0,-47 61.96875,0 -49.125,-52.03125 38,-37.375 c -10.93455,-12.12302 -19.75271,-25.95168 -44.4375,-26.96875 z"
       id="path3766"
       inkscape:connector-curvature="0"
       inkscape:export-filename="/home/sxe/code/shakerloops/alert.png"
       inkscape:export-xdpi="91"
       inkscape:export-ydpi="91" />
    <path
       style="fill:#1a1a1a;fill-opacity:1;fill-rule:nonzero;stroke:#1a1a1a;stroke-width:8;stroke-linecap:square;stroke-linejoin:miter;stroke-miterlimit:4;stroke-opacity:1;stroke-dasharray:none"
       id="path3770"
       d="m 182.92635,688.61839 32.44342,0 -17.59131,-18.63841 z"
       inkscape:connector-curvature="0"
       inkscape:export-filename="/home/sxe/code/shakerloops/alert.png"
       inkscape:export-xdpi="91"
       inkscape:export-ydpi="91" />
    <path
       style="fill:#535353;fill-opacity:1;fill-rule:nonzero;stroke:none"
       id="path3772"
       d="m 203.58673,687.27805 3.68407,-0.14808 2.53197,-2.51793 -1.85662,-2.33184 z"
       inkscape:connector-curvature="0"
       inkscape:export-filename="/home/sxe/code/shakerloops/alert.png"
       inkscape:export-xdpi="91"
       inkscape:export-ydpi="91" />
    <path
       style="fill:#535353;fill-opacity:1;fill-rule:nonzero;stroke:none"
       id="path3774"
       d="m 205.42067,682.08384 -3.82582,4.93829 -3.38164,0.19425 5.38101,-7.07138 z"
       inkscape:connector-curvature="0"
       inkscape:export-filename="/home/sxe/code/shakerloops/alert.png"
       inkscape:export-xdpi="91"
       inkscape:export-ydpi="91" />
    <path
       style="fill:#1a1a1a;fill-opacity:1;fill-rule:nonzero;stroke:none"
       id="path3776"
       d="m 144.9931,645.3605 a 8.2474704,13.344688 0 0 1 -16.49494,0 8.2474704,13.344688 0 1 1 16.49494,0 z"
       inkscape:connector-curvature="0"
       inkscape:export-filename="/home/sxe/code/shakerloops/alert.png"
       inkscape:export-xdpi="91"
       inkscape:export-ydpi="91" />
    <path
       style="fill:#1a1a1a;fill-opacity:1;fill-rule:nonzero;stroke:none"
       id="path3778"
       d="m 157.49773,645.94506 a 4.67653,7.5667848 0 0 1 -9.35306,0 4.67653,7.5667848 0 1 1 9.35306,0 z"
       inkscape:connector-curvature="0"
       inkscape:export-filename="/home/sxe/code/shakerloops/alert.png"
       inkscape:export-xdpi="91"
       inkscape:export-ydpi="91" />
    <path
       style="fill:#535353;fill-opacity:1;fill-rule:nonzero;stroke:none"
       id="path3780"
       d="m 85.011546,586.31934 c -9.3415,6.43209 -17.30615,16.72774 -21.33666,29.62088 l 46.472994,8.18392 11.69132,-13.54532 z"
       inkscape:connector-curvature="0"
       inkscape:export-filename="/home/sxe/code/shakerloops/alert.png"
       inkscape:export-xdpi="91"
       inkscape:export-ydpi="91" />
    <path
       style="fill:#535353;fill-opacity:1;fill-rule:nonzero;stroke:none"
       id="path3782"
       d="m 142.00673,612.04023 20.76174,-30.16389 c 14.21016,3.95491 22.78613,11.91036 29.16599,20.31546 l -31.22162,26.50857 z"
       inkscape:connector-curvature="0"
       inkscape:export-filename="/home/sxe/code/shakerloops/alert.png"
       inkscape:export-xdpi="91"
       inkscape:export-ydpi="91" />
    <path
       style="fill:none;stroke:#1a1a1a;stroke-width:8;stroke-miterlimit:4;stroke-opacity:1;stroke-dasharray:none"
       id="path3784"
       d="m 153.69805,688.76454 c -8.37665,-2.20896 -16.65227,-3.67705 -26.15933,-14.17573"
       inkscape:connector-curvature="0"
       inkscape:export-filename="/home/sxe/code/shakerloops/alert.png"
       inkscape:export-xdpi="91"
       inkscape:export-ydpi="91" />
    <path
       style="fill:none;stroke:#1a1a1a;stroke-width:8;stroke-linecap:square;stroke-linejoin:miter;stroke-miterlimit:4;stroke-opacity:1;stroke-dasharray:none"
       id="path3788"
       d="m 130.88959,670.34032 c -1.55558,3.36517 -3.33417,6.46273 -7.59936,6.57636"
       inkscape:connector-curvature="0"
       inkscape:export-filename="/home/sxe/code/shakerloops/alert.png"
       inkscape:export-xdpi="91"
       inkscape:export-ydpi="91" />
  </g>
</svg>
